<?xml version="1.0" encoding="UTF-8"?>
<testng-results skipped="0" failed="0" total="14" passed="14">
  <reporter-output>
    <line>
      <![CDATA[<table width= 100% ; border = 1.5; rules =rows ><tbody><tr><td> <font style=\width:130px;text-align:left;color:black;font-size:12px;font-family:verdana;\><strong>Info</strong></td><td> <font style=\width:130px;text-align:left;color:black;font-size:12px;font-family:verdana;\>Successfully launched the Chrome</td></tr></tbody></table>]]>
    </line>
    <line>
      <![CDATA[<table width= 100% ; border = 1.5; rules =rows ><tbody><tr><td> <font style=\width:130px;text-align:left;color:black;font-size:12px;font-family:verdana;\><strong>Info</strong></td><td> <font style=\width:130px;text-align:left;color:black;font-size:12px;font-family:verdana;\>Successfully closing the Driver</td></tr></tbody></table>]]>
    </line>
    <line>
      <![CDATA[<table width= 100% ; border = 1.5; rules =rows ><tbody><tr><td> <font style=\width:130px;text-align:left;color:black;font-size:12px;font-family:verdana;\><strong>Info</strong></td><td> <font style=\width:130px;text-align:left;color:black;font-size:12px;font-family:verdana;\>Successfully launched the Chrome</td></tr></tbody></table>]]>
    </line>
    <line>
      <![CDATA[<table width= 100% ; border = 1.5; rules =rows ><tbody><tr><td> <font style=\width:130px;text-align:left;color:green;font-size:12px;font-family:verdana;\><strong>Pass</strong></td><td> <font style=\width:130px;text-align:left;color:black;font-size:12px;font-family:verdana;\>Successfully signed in to ALW</td></tr><tr><td colspan=2><table width= 100% ;rules =rows ><tbody><tr><td> <font style=\width:130px;text-align:left;color:black;font-size:12px;font-family:verdana;\><strong>Screenshot</strong></td><td> <font style=\width:130px;text-align:left;color:black;font-size:12px;font-family:verdana;\><strong><a href="C:\Users\n.kumarasamy\Selenium\pocALWx/\Screenshot\10-07-2016_17-50.png"><img src="file:///C:\Users\n.kumarasamy\Selenium\pocALWx/\Screenshot\10-07-2016_17-50.png" alt=""height='300' width='300' border =1/> <br /></strong></td></tr></tbody></table></td></tr></tbody></table>]]>
    </line>
    <line>
      <![CDATA[<table width= 100% ; border = 1.5; rules =rows ><tbody><tr><td> <font style=\width:130px;text-align:left;color:black;font-size:12px;font-family:verdana;\><strong>Info</strong></td><td> <font style=\width:130px;text-align:left;color:black;font-size:12px;font-family:verdana;\>Successfully closing the Driver</td></tr></tbody></table>]]>
    </line>
  </reporter-output>
  <suite name="Suite" duration-ms="92614" started-at="2016-10-07T12:23:00Z" finished-at="2016-10-07T12:24:33Z">
    <groups>
    </groups>
    <test name="Test" duration-ms="16873" started-at="2016-10-07T12:23:00Z" finished-at="2016-10-07T12:23:17Z">
      <class name="scripts.JobPoster">
        <test-method status="PASS" signature="login()[pri:0, instance:scripts.JobPoster@1fece0a]" name="login" is-config="true" duration-ms="10183" started-at="2016-10-07T17:53:00Z" finished-at="2016-10-07T17:53:10Z">
          <reporter-output>
            <line>
              <![CDATA[<table width= 100% ; border = 1.5; rules =rows ><tbody><tr><td> <font style=\width:130px;text-align:left;color:black;font-size:12px;font-family:verdana;\><strong>Info</strong></td><td> <font style=\width:130px;text-align:left;color:black;font-size:12px;font-family:verdana;\>Successfully launched the Chrome</td></tr></tbody></table>]]>
            </line>
          </reporter-output>
        </test-method> <!-- login -->
        <test-method status="PASS" signature="jobPoster(java.lang.String, java.lang.String, java.lang.String, java.lang.String, java.lang.String, java.lang.String, java.lang.String, java.lang.String, java.lang.String, java.lang.String, java.lang.String, java.lang.String, java.lang.String)[pri:0, instance:scripts.JobPoster@1fece0a]" name="jobPoster" duration-ms="2" started-at="2016-10-07T17:53:13Z" description="ALW" data-provider="TestData" finished-at="2016-10-07T17:53:13Z">
          <params>
            <param index="0">
              <value>
                <![CDATA[n]]>
              </value>
            </param>
            <param index="1">
              <value>
                <![CDATA[New user Login]]>
              </value>
            </param>
            <param index="2">
              <value>
                <![CDATA[adtestid101]]>
              </value>
            </param>
            <param index="3">
              <value>
                <![CDATA[qW3d57oH4u1Yk09wC6cU]]>
              </value>
            </param>
            <param index="4">
              <value>
                <![CDATA[]]>
              </value>
            </param>
            <param index="5">
              <value>
                <![CDATA[]]>
              </value>
            </param>
            <param index="6">
              <value>
                <![CDATA[]]>
              </value>
            </param>
            <param index="7">
              <value>
                <![CDATA[]]>
              </value>
            </param>
            <param index="8">
              <value>
                <![CDATA[]]>
              </value>
            </param>
            <param index="9">
              <value>
                <![CDATA[]]>
              </value>
            </param>
            <param index="10">
              <value>
                <![CDATA[]]>
              </value>
            </param>
            <param index="11">
              <value>
                <![CDATA[]]>
              </value>
            </param>
            <param index="12">
              <value>
                <![CDATA[]]>
              </value>
            </param>
          </params>
          <reporter-output>
          </reporter-output>
        </test-method> <!-- jobPoster -->
        <test-method status="PASS" signature="jobPoster(java.lang.String, java.lang.String, java.lang.String, java.lang.String, java.lang.String, java.lang.String, java.lang.String, java.lang.String, java.lang.String, java.lang.String, java.lang.String, java.lang.String, java.lang.String)[pri:0, instance:scripts.JobPoster@1fece0a]" name="jobPoster" duration-ms="0" started-at="2016-10-07T17:53:13Z" description="ALW" data-provider="TestData" finished-at="2016-10-07T17:53:13Z">
          <params>
            <param index="0">
              <value>
                <![CDATA[n]]>
              </value>
            </param>
            <param index="1">
              <value>
                <![CDATA[login]]>
              </value>
            </param>
            <param index="2">
              <value>
                <![CDATA[adtestid32]]>
              </value>
            </param>
            <param index="3">
              <value>
                <![CDATA[qW3d57oH4u1Yk09wC6cU]]>
              </value>
            </param>
            <param index="4">
              <value>
                <![CDATA[]]>
              </value>
            </param>
            <param index="5">
              <value>
                <![CDATA[]]>
              </value>
            </param>
            <param index="6">
              <value>
                <![CDATA[]]>
              </value>
            </param>
            <param index="7">
              <value>
                <![CDATA[]]>
              </value>
            </param>
            <param index="8">
              <value>
                <![CDATA[]]>
              </value>
            </param>
            <param index="9">
              <value>
                <![CDATA[]]>
              </value>
            </param>
            <param index="10">
              <value>
                <![CDATA[]]>
              </value>
            </param>
            <param index="11">
              <value>
                <![CDATA[]]>
              </value>
            </param>
            <param index="12">
              <value>
                <![CDATA[]]>
              </value>
            </param>
          </params>
          <reporter-output>
          </reporter-output>
        </test-method> <!-- jobPoster -->
        <test-method status="PASS" signature="jobPoster(java.lang.String, java.lang.String, java.lang.String, java.lang.String, java.lang.String, java.lang.String, java.lang.String, java.lang.String, java.lang.String, java.lang.String, java.lang.String, java.lang.String, java.lang.String)[pri:0, instance:scripts.JobPoster@1fece0a]" name="jobPoster" duration-ms="0" started-at="2016-10-07T17:53:13Z" description="ALW" data-provider="TestData" finished-at="2016-10-07T17:53:13Z">
          <params>
            <param index="0">
              <value>
                <![CDATA[n]]>
              </value>
            </param>
            <param index="1">
              <value>
                <![CDATA[ApplyToJob]]>
              </value>
            </param>
            <param index="2">
              <value>
                <![CDATA[adtestid2]]>
              </value>
            </param>
            <param index="3">
              <value>
                <![CDATA[qW3d57oH4u1Yk09wC6cU]]>
              </value>
            </param>
            <param index="4">
              <value>
                <![CDATA[SQE TestJob Oct7_2]]>
              </value>
            </param>
            <param index="5">
              <value>
                <![CDATA[SolutionLIVE]]>
              </value>
            </param>
            <param index="6">
              <value>
                <![CDATA[]]>
              </value>
            </param>
            <param index="7">
              <value>
                <![CDATA[]]>
              </value>
            </param>
            <param index="8">
              <value>
                <![CDATA[]]>
              </value>
            </param>
            <param index="9">
              <value>
                <![CDATA[]]>
              </value>
            </param>
            <param index="10">
              <value>
                <![CDATA[]]>
              </value>
            </param>
            <param index="11">
              <value>
                <![CDATA[]]>
              </value>
            </param>
            <param index="12">
              <value>
                <![CDATA[]]>
              </value>
            </param>
          </params>
          <reporter-output>
          </reporter-output>
        </test-method> <!-- jobPoster -->
        <test-method status="PASS" signature="jobPoster(java.lang.String, java.lang.String, java.lang.String, java.lang.String, java.lang.String, java.lang.String, java.lang.String, java.lang.String, java.lang.String, java.lang.String, java.lang.String, java.lang.String, java.lang.String)[pri:0, instance:scripts.JobPoster@1fece0a]" name="jobPoster" duration-ms="0" started-at="2016-10-07T17:53:13Z" description="ALW" data-provider="TestData" finished-at="2016-10-07T17:53:13Z">
          <params>
            <param index="0">
              <value>
                <![CDATA[n]]>
              </value>
            </param>
            <param index="1">
              <value>
                <![CDATA[ApplicantAcceptOffer]]>
              </value>
            </param>
            <param index="2">
              <value>
                <![CDATA[adtestid2]]>
              </value>
            </param>
            <param index="3">
              <value>
                <![CDATA[qW3d57oH4u1Yk09wC6cU]]>
              </value>
            </param>
            <param index="4">
              <value>
                <![CDATA[SQE TestJob Oct7_2]]>
              </value>
            </param>
            <param index="5">
              <value>
                <![CDATA[SolutionLIVE]]>
              </value>
            </param>
            <param index="6">
              <value>
                <![CDATA[]]>
              </value>
            </param>
            <param index="7">
              <value>
                <![CDATA[]]>
              </value>
            </param>
            <param index="8">
              <value>
                <![CDATA[]]>
              </value>
            </param>
            <param index="9">
              <value>
                <![CDATA[]]>
              </value>
            </param>
            <param index="10">
              <value>
                <![CDATA[]]>
              </value>
            </param>
            <param index="11">
              <value>
                <![CDATA[]]>
              </value>
            </param>
            <param index="12">
              <value>
                <![CDATA[]]>
              </value>
            </param>
          </params>
          <reporter-output>
          </reporter-output>
        </test-method> <!-- jobPoster -->
        <test-method status="PASS" signature="jobPoster(java.lang.String, java.lang.String, java.lang.String, java.lang.String, java.lang.String, java.lang.String, java.lang.String, java.lang.String, java.lang.String, java.lang.String, java.lang.String, java.lang.String, java.lang.String)[pri:0, instance:scripts.JobPoster@1fece0a]" name="jobPoster" duration-ms="0" started-at="2016-10-07T17:53:13Z" description="ALW" data-provider="TestData" finished-at="2016-10-07T17:53:13Z">
          <params>
            <param index="0">
              <value>
                <![CDATA[n]]>
              </value>
            </param>
            <param index="1">
              <value>
                <![CDATA[postjob]]>
              </value>
            </param>
            <param index="2">
              <value>
                <![CDATA[]]>
              </value>
            </param>
            <param index="3">
              <value>
                <![CDATA[]]>
              </value>
            </param>
            <param index="4">
              <value>
                <![CDATA[TestJob]]>
              </value>
            </param>
            <param index="5">
              <value>
                <![CDATA[SolutionLIVE]]>
              </value>
            </param>
            <param index="6">
              <value>
                <![CDATA[Capability Expertise]]>
              </value>
            </param>
            <param index="7">
              <value>
                <![CDATA[10/7/2016  6:02:00 PM]]>
              </value>
            </param>
            <param index="8">
              <value>
                <![CDATA[10/7/2016  6:02:00 PM]]>
              </value>
            </param>
            <param index="9">
              <value>
                <![CDATA[2]]>
              </value>
            </param>
            <param index="10">
              <value>
                <![CDATA[This is a template description
Test
Test
email@accenture.com]]>
              </value>
            </param>
            <param index="11">
              <value>
                <![CDATA[No]]>
              </value>
            </param>
            <param index="12">
              <value>
                <![CDATA[]]>
              </value>
            </param>
          </params>
          <reporter-output>
          </reporter-output>
        </test-method> <!-- jobPoster -->
        <test-method status="PASS" signature="jobPoster(java.lang.String, java.lang.String, java.lang.String, java.lang.String, java.lang.String, java.lang.String, java.lang.String, java.lang.String, java.lang.String, java.lang.String, java.lang.String, java.lang.String, java.lang.String)[pri:0, instance:scripts.JobPoster@1fece0a]" name="jobPoster" duration-ms="0" started-at="2016-10-07T17:53:13Z" description="ALW" data-provider="TestData" finished-at="2016-10-07T17:53:13Z">
          <params>
            <param index="0">
              <value>
                <![CDATA[n]]>
              </value>
            </param>
            <param index="1">
              <value>
                <![CDATA[MarketPlaceProfile]]>
              </value>
            </param>
            <param index="2">
              <value>
                <![CDATA[]]>
              </value>
            </param>
            <param index="3">
              <value>
                <![CDATA[]]>
              </value>
            </param>
            <param index="4">
              <value>
                <![CDATA[]]>
              </value>
            </param>
            <param index="5">
              <value>
                <![CDATA[]]>
              </value>
            </param>
            <param index="6">
              <value>
                <![CDATA[]]>
              </value>
            </param>
            <param index="7">
              <value>
                <![CDATA[]]>
              </value>
            </param>
            <param index="8">
              <value>
                <![CDATA[]]>
              </value>
            </param>
            <param index="9">
              <value>
                <![CDATA[]]>
              </value>
            </param>
            <param index="10">
              <value>
                <![CDATA[]]>
              </value>
            </param>
            <param index="11">
              <value>
                <![CDATA[]]>
              </value>
            </param>
            <param index="12">
              <value>
                <![CDATA[]]>
              </value>
            </param>
          </params>
          <reporter-output>
          </reporter-output>
        </test-method> <!-- jobPoster -->
        <test-method status="PASS" signature="jobPoster(java.lang.String, java.lang.String, java.lang.String, java.lang.String, java.lang.String, java.lang.String, java.lang.String, java.lang.String, java.lang.String, java.lang.String, java.lang.String, java.lang.String, java.lang.String)[pri:0, instance:scripts.JobPoster@1fece0a]" name="jobPoster" duration-ms="0" started-at="2016-10-07T17:53:13Z" description="ALW" data-provider="TestData" finished-at="2016-10-07T17:53:13Z">
          <params>
            <param index="0">
              <value>
                <![CDATA[n]]>
              </value>
            </param>
            <param index="1">
              <value>
                <![CDATA[postjob]]>
              </value>
            </param>
            <param index="2">
              <value>
                <![CDATA[]]>
              </value>
            </param>
            <param index="3">
              <value>
                <![CDATA[]]>
              </value>
            </param>
            <param index="4">
              <value>
                <![CDATA[TestJob]]>
              </value>
            </param>
            <param index="5">
              <value>
                <![CDATA[SolutionLIVE]]>
              </value>
            </param>
            <param index="6">
              <value>
                <![CDATA[Capability Expertise]]>
              </value>
            </param>
            <param index="7">
              <value>
                <![CDATA[10/7/2016  6:02:00 PM]]>
              </value>
            </param>
            <param index="8">
              <value>
                <![CDATA[10/7/2016  6:02:00 PM]]>
              </value>
            </param>
            <param index="9">
              <value>
                <![CDATA[2]]>
              </value>
            </param>
            <param index="10">
              <value>
                <![CDATA[This is a template description
Test
Test
email@accenture.com]]>
              </value>
            </param>
            <param index="11">
              <value>
                <![CDATA[Yes]]>
              </value>
            </param>
            <param index="12">
              <value>
                <![CDATA[3.0]]>
              </value>
            </param>
          </params>
          <reporter-output>
          </reporter-output>
        </test-method> <!-- jobPoster -->
        <test-method status="PASS" signature="jobPoster(java.lang.String, java.lang.String, java.lang.String, java.lang.String, java.lang.String, java.lang.String, java.lang.String, java.lang.String, java.lang.String, java.lang.String, java.lang.String, java.lang.String, java.lang.String)[pri:0, instance:scripts.JobPoster@1fece0a]" name="jobPoster" duration-ms="0" started-at="2016-10-07T17:53:13Z" description="ALW" data-provider="TestData" finished-at="2016-10-07T17:53:13Z">
          <params>
            <param index="0">
              <value>
                <![CDATA[n]]>
              </value>
            </param>
            <param index="1">
              <value>
                <![CDATA[ApplicantVerifyJobStatus]]>
              </value>
            </param>
            <param index="2">
              <value>
                <![CDATA[adtestid2]]>
              </value>
            </param>
            <param index="3">
              <value>
                <![CDATA[qW3d57oH4u1Yk09wC6cU]]>
              </value>
            </param>
            <param index="4">
              <value>
                <![CDATA[SQE TestJob Oct7_2]]>
              </value>
            </param>
            <param index="5">
              <value>
                <![CDATA[SolutionLIVE]]>
              </value>
            </param>
            <param index="6">
              <value>
                <![CDATA[]]>
              </value>
            </param>
            <param index="7">
              <value>
                <![CDATA[]]>
              </value>
            </param>
            <param index="8">
              <value>
                <![CDATA[]]>
              </value>
            </param>
            <param index="9">
              <value>
                <![CDATA[]]>
              </value>
            </param>
            <param index="10">
              <value>
                <![CDATA[]]>
              </value>
            </param>
            <param index="11">
              <value>
                <![CDATA[]]>
              </value>
            </param>
            <param index="12">
              <value>
                <![CDATA[]]>
              </value>
            </param>
          </params>
          <reporter-output>
          </reporter-output>
        </test-method> <!-- jobPoster -->
        <test-method status="PASS" signature="jobPoster(java.lang.String, java.lang.String, java.lang.String, java.lang.String, java.lang.String, java.lang.String, java.lang.String, java.lang.String, java.lang.String, java.lang.String, java.lang.String, java.lang.String, java.lang.String)[pri:0, instance:scripts.JobPoster@1fece0a]" name="jobPoster" duration-ms="0" started-at="2016-10-07T17:53:13Z" description="ALW" data-provider="TestData" finished-at="2016-10-07T17:53:13Z">
          <params>
            <param index="0">
              <value>
                <![CDATA[n]]>
              </value>
            </param>
            <param index="1">
              <value>
                <![CDATA[postjob]]>
              </value>
            </param>
            <param index="2">
              <value>
                <![CDATA[]]>
              </value>
            </param>
            <param index="3">
              <value>
                <![CDATA[]]>
              </value>
            </param>
            <param index="4">
              <value>
                <![CDATA[SQE TestJob Oct7_2]]>
              </value>
            </param>
            <param index="5">
              <value>
                <![CDATA[SolutionLIVE]]>
              </value>
            </param>
            <param index="6">
              <value>
                <![CDATA[Capability Expertise]]>
              </value>
            </param>
            <param index="7">
              <value>
                <![CDATA[10/9/2016  6:02:00 PM]]>
              </value>
            </param>
            <param index="8">
              <value>
                <![CDATA[10/9/2016  6:02:00 PM]]>
              </value>
            </param>
            <param index="9">
              <value>
                <![CDATA[2]]>
              </value>
            </param>
            <param index="10">
              <value>
                <![CDATA[This is a template description
Test
Test
email@accenture.com]]>
              </value>
            </param>
            <param index="11">
              <value>
                <![CDATA[No]]>
              </value>
            </param>
            <param index="12">
              <value>
                <![CDATA[]]>
              </value>
            </param>
          </params>
          <reporter-output>
          </reporter-output>
        </test-method> <!-- jobPoster -->
        <test-method status="PASS" signature="closeTheAction()[pri:0, instance:scripts.JobPoster@1fece0a]" name="closeTheAction" is-config="true" duration-ms="4134" started-at="2016-10-07T17:53:13Z" finished-at="2016-10-07T17:53:17Z">
          <reporter-output>
            <line>
              <![CDATA[<table width= 100% ; border = 1.5; rules =rows ><tbody><tr><td> <font style=\width:130px;text-align:left;color:black;font-size:12px;font-family:verdana;\><strong>Info</strong></td><td> <font style=\width:130px;text-align:left;color:black;font-size:12px;font-family:verdana;\>Successfully closing the Driver</td></tr></tbody></table>]]>
            </line>
          </reporter-output>
        </test-method> <!-- closeTheAction -->
        <test-method status="PASS" signature="jobPoster(java.lang.String, java.lang.String, java.lang.String, java.lang.String, java.lang.String, java.lang.String, java.lang.String, java.lang.String, java.lang.String, java.lang.String, java.lang.String, java.lang.String, java.lang.String)[pri:0, instance:scripts.JobPoster@1fece0a]" name="jobPoster" duration-ms="0" started-at="2016-10-07T17:53:13Z" description="ALW" data-provider="TestData" finished-at="2016-10-07T17:53:13Z">
          <params>
            <param index="0">
              <value>
                <![CDATA[n]]>
              </value>
            </param>
            <param index="1">
              <value>
                <![CDATA[JobPosterOfferJob]]>
              </value>
            </param>
            <param index="2">
              <value>
                <![CDATA[adtestid32]]>
              </value>
            </param>
            <param index="3">
              <value>
                <![CDATA[qW3d57oH4u1Yk09wC6cU]]>
              </value>
            </param>
            <param index="4">
              <value>
                <![CDATA[SQE TestJob Oct7_2]]>
              </value>
            </param>
            <param index="5">
              <value>
                <![CDATA[SolutionLIVE]]>
              </value>
            </param>
            <param index="6">
              <value>
                <![CDATA[]]>
              </value>
            </param>
            <param index="7">
              <value>
                <![CDATA[]]>
              </value>
            </param>
            <param index="8">
              <value>
                <![CDATA[]]>
              </value>
            </param>
            <param index="9">
              <value>
                <![CDATA[]]>
              </value>
            </param>
            <param index="10">
              <value>
                <![CDATA[]]>
              </value>
            </param>
            <param index="11">
              <value>
                <![CDATA[]]>
              </value>
            </param>
            <param index="12">
              <value>
                <![CDATA[]]>
              </value>
            </param>
          </params>
          <reporter-output>
          </reporter-output>
        </test-method> <!-- jobPoster -->
        <test-method status="PASS" signature="jobPoster(java.lang.String, java.lang.String, java.lang.String, java.lang.String, java.lang.String, java.lang.String, java.lang.String, java.lang.String, java.lang.String, java.lang.String, java.lang.String, java.lang.String, java.lang.String)[pri:0, instance:scripts.JobPoster@1fece0a]" name="jobPoster" duration-ms="0" started-at="2016-10-07T17:53:13Z" description="ALW" data-provider="TestData" finished-at="2016-10-07T17:53:13Z">
          <params>
            <param index="0">
              <value>
                <![CDATA[n]]>
              </value>
            </param>
            <param index="1">
              <value>
                <![CDATA[JobPosterCompletesJob]]>
              </value>
            </param>
            <param index="2">
              <value>
                <![CDATA[adtestid32]]>
              </value>
            </param>
            <param index="3">
              <value>
                <![CDATA[qW3d57oH4u1Yk09wC6cU]]>
              </value>
            </param>
            <param index="4">
              <value>
                <![CDATA[SQE TestJob Oct7_2]]>
              </value>
            </param>
            <param index="5">
              <value>
                <![CDATA[SolutionLIVE]]>
              </value>
            </param>
            <param index="6">
              <value>
                <![CDATA[]]>
              </value>
            </param>
            <param index="7">
              <value>
                <![CDATA[]]>
              </value>
            </param>
            <param index="8">
              <value>
                <![CDATA[]]>
              </value>
            </param>
            <param index="9">
              <value>
                <![CDATA[]]>
              </value>
            </param>
            <param index="10">
              <value>
                <![CDATA[]]>
              </value>
            </param>
            <param index="11">
              <value>
                <![CDATA[]]>
              </value>
            </param>
            <param index="12">
              <value>
                <![CDATA[]]>
              </value>
            </param>
          </params>
          <reporter-output>
          </reporter-output>
        </test-method> <!-- jobPoster -->
        <test-method status="PASS" signature="jobPoster(java.lang.String, java.lang.String, java.lang.String, java.lang.String, java.lang.String, java.lang.String, java.lang.String, java.lang.String, java.lang.String, java.lang.String, java.lang.String, java.lang.String, java.lang.String)[pri:0, instance:scripts.JobPoster@1fece0a]" name="jobPoster" duration-ms="0" started-at="2016-10-07T17:53:13Z" description="ALW" data-provider="TestData" finished-at="2016-10-07T17:53:13Z">
          <params>
            <param index="0">
              <value>
                <![CDATA[n]]>
              </value>
            </param>
            <param index="1">
              <value>
                <![CDATA[Existing user Login]]>
              </value>
            </param>
            <param index="2">
              <value>
                <![CDATA[adtestid7]]>
              </value>
            </param>
            <param index="3">
              <value>
                <![CDATA[qW3d57oH4u1Yk09wC6cU]]>
              </value>
            </param>
            <param index="4">
              <value>
                <![CDATA[]]>
              </value>
            </param>
            <param index="5">
              <value>
                <![CDATA[]]>
              </value>
            </param>
            <param index="6">
              <value>
                <![CDATA[]]>
              </value>
            </param>
            <param index="7">
              <value>
                <![CDATA[]]>
              </value>
            </param>
            <param index="8">
              <value>
                <![CDATA[]]>
              </value>
            </param>
            <param index="9">
              <value>
                <![CDATA[]]>
              </value>
            </param>
            <param index="10">
              <value>
                <![CDATA[]]>
              </value>
            </param>
            <param index="11">
              <value>
                <![CDATA[]]>
              </value>
            </param>
            <param index="12">
              <value>
                <![CDATA[]]>
              </value>
            </param>
          </params>
          <reporter-output>
          </reporter-output>
        </test-method> <!-- jobPoster -->
      </class> <!-- scripts.JobPoster -->
    </test> <!-- Test -->
    <test name="Test1" duration-ms="75647" started-at="2016-10-07T12:23:17Z" finished-at="2016-10-07T12:24:33Z">
      <class name="scripts.UploadMember">
        <test-method status="PASS" signature="login()[pri:0, instance:scripts.UploadMember@2413d9]" name="login" is-config="true" duration-ms="13301" started-at="2016-10-07T17:53:17Z" finished-at="2016-10-07T17:53:30Z">
          <reporter-output>
            <line>
              <![CDATA[<table width= 100% ; border = 1.5; rules =rows ><tbody><tr><td> <font style=\width:130px;text-align:left;color:black;font-size:12px;font-family:verdana;\><strong>Info</strong></td><td> <font style=\width:130px;text-align:left;color:black;font-size:12px;font-family:verdana;\>Successfully launched the Chrome</td></tr></tbody></table>]]>
            </line>
          </reporter-output>
        </test-method> <!-- login -->
        <test-method status="PASS" signature="uploadList(java.lang.String, java.lang.String, java.lang.String, java.lang.String, java.lang.String)[pri:0, instance:scripts.UploadMember@2413d9]" name="uploadList" duration-ms="58116" started-at="2016-10-07T17:53:31Z" description="ALW" data-provider="TestData" finished-at="2016-10-07T17:54:29Z">
          <params>
            <param index="0">
              <value>
                <![CDATA[y]]>
              </value>
            </param>
            <param index="1">
              <value>
                <![CDATA[admin]]>
              </value>
            </param>
            <param index="2">
              <value>
                <![CDATA[adtestid2]]>
              </value>
            </param>
            <param index="3">
              <value>
                <![CDATA[qW3d57oH4u1Yk09wC6cU]]>
              </value>
            </param>
            <param index="4">
              <value>
                <![CDATA[]]>
              </value>
            </param>
          </params>
          <reporter-output>
            <line>
              <![CDATA[<table width= 100% ; border = 1.5; rules =rows ><tbody><tr><td> <font style=\width:130px;text-align:left;color:green;font-size:12px;font-family:verdana;\><strong>Pass</strong></td><td> <font style=\width:130px;text-align:left;color:black;font-size:12px;font-family:verdana;\>Successfully signed in to ALW</td></tr><tr><td colspan=2><table width= 100% ;rules =rows ><tbody><tr><td> <font style=\width:130px;text-align:left;color:black;font-size:12px;font-family:verdana;\><strong>Screenshot</strong></td><td> <font style=\width:130px;text-align:left;color:black;font-size:12px;font-family:verdana;\><strong><a href="C:\Users\n.kumarasamy\Selenium\pocALWx/\Screenshot\10-07-2016_17-50.png"><img src="file:///C:\Users\n.kumarasamy\Selenium\pocALWx/\Screenshot\10-07-2016_17-50.png" alt=""height='300' width='300' border =1/> <br /></strong></td></tr></tbody></table></td></tr></tbody></table>]]>
            </line>
          </reporter-output>
        </test-method> <!-- uploadList -->
        <test-method status="PASS" signature="closeTheAction()[pri:0, instance:scripts.UploadMember@2413d9]" name="closeTheAction" is-config="true" duration-ms="3979" started-at="2016-10-07T17:54:29Z" finished-at="2016-10-07T17:54:33Z">
          <reporter-output>
            <line>
              <![CDATA[<table width= 100% ; border = 1.5; rules =rows ><tbody><tr><td> <font style=\width:130px;text-align:left;color:black;font-size:12px;font-family:verdana;\><strong>Info</strong></td><td> <font style=\width:130px;text-align:left;color:black;font-size:12px;font-family:verdana;\>Successfully closing the Driver</td></tr></tbody></table>]]>
            </line>
          </reporter-output>
        </test-method> <!-- closeTheAction -->
        <test-method status="PASS" signature="uploadList(java.lang.String, java.lang.String, java.lang.String, java.lang.String, java.lang.String)[pri:0, instance:scripts.UploadMember@2413d9]" name="uploadList" duration-ms="0" started-at="2016-10-07T17:54:29Z" description="ALW" data-provider="TestData" finished-at="2016-10-07T17:54:29Z">
          <params>
            <param index="0">
              <value>
                <![CDATA[n]]>
              </value>
            </param>
            <param index="1">
              <value>
                <![CDATA[viewCrowd]]>
              </value>
            </param>
            <param index="2">
              <value>
                <![CDATA[]]>
              </value>
            </param>
            <param index="3">
              <value>
                <![CDATA[]]>
              </value>
            </param>
            <param index="4">
              <value>
                <![CDATA[n.kumarasamy]]>
              </value>
            </param>
          </params>
          <reporter-output>
          </reporter-output>
        </test-method> <!-- uploadList -->
      </class> <!-- scripts.UploadMember -->
    </test> <!-- Test1 -->
  </suite> <!-- Suite -->
</testng-results>
